src/util/fifo__tb.vcd
$date
	Sun Mar 15 23:08:33 2026
$end
$version
	Icarus Verilog
$end
$timescale
	1ps
$end
$scope module fifo__tb $end
$var wire 1 ! wr_ready $end
$var wire 1 " rd_ready $end
$var wire 1 # full $end
$var wire 1 $ empty $end
$var wire 8 % dout [7:0] $end
$var wire 1 & busy $end
$var reg 1 ' clk $end
$var reg 8 ( din [7:0] $end
$var reg 1 ) rd_req $end
$var reg 1 * rst_n $end
$var reg 1 + wr_req $end
$var integer 32 , i [31:0] $end
$scope module fifo1 $end
$var wire 1 ' clk $end
$var wire 8 - din [7:0] $end
$var wire 1 ) rd_req $end
$var wire 1 * rst_n $end
$var wire 1 + wr_req $end
$var wire 4 . state_wire [3:0] $end
$var reg 1 & busy $end
$var reg 9 / count [8:0] $end
$var reg 8 0 dout [7:0] $end
$var reg 1 $ empty $end
$var reg 1 # full $end
$var reg 1 1 last_op_was_write $end
$var reg 8 2 rd_ptr [7:0] $end
$var reg 1 " rd_ready $end
$var reg 3 3 state [2:0] $end
$var reg 8 4 wr_ptr [7:0] $end
$var reg 1 ! wr_ready $end
$upscope $end
$upscope $end
$enddefinitions $end
#0
$dumpvars
bx 4
bx 3
bx 2
x1
bx 0
bx /
b1xxx .
bx -
bx ,
x+
0*
x)
bx (
0'
x&
bx %
x$
x#
x"
x!
$end
#20000
01
0"
0!
0#
1$
b0 %
b0 0
b0 /
b0 2
b0 4
b1000 .
b0 3
1'
#40000
0'
#50000
b0 .
1*
#60000
0&
1'
#80000
0'
#100000
1&
11
b1 .
b1 3
1'
b0 (
b0 -
1+
b0 ,
#120000
0'
#140000
1!
b0 .
b0 3
b1 /
b1 4
1'
#160000
0'
#180000
0$
0!
b1 .
b1 3
1'
#200000
0'
#220000
1!
b0 .
b0 3
b10 /
b10 4
1'
0+
#240000
0'
#260000
0!
b1 .
b1 3
1'
b1 (
b1 -
1+
b1 ,
#280000
0'
#300000
1!
b0 .
b0 3
b11 /
b11 4
1'
#320000
0'
#340000
0!
b1 .
b1 3
1'
#360000
0'
#380000
1!
b0 .
b0 3
b100 /
b100 4
1'
0+
#400000
0'
#420000
0!
b1 .
b1 3
1'
b10 (
b10 -
1+
b10 ,
#440000
0'
#460000
1!
b0 .
b0 3
b101 /
b101 4
1'
#480000
0'
#500000
0!
b1 .
b1 3
1'
#520000
0'
#540000
1!
b0 .
b0 3
b110 /
b110 4
1'
0+
#560000
0'
#580000
0!
b1 .
b1 3
1'
b11 (
b11 -
1+
b11 ,
#600000
0'
#620000
1!
b0 .
b0 3
b111 /
b111 4
1'
#640000
0'
#660000
0!
b1 .
b1 3
1'
#680000
0'
#700000
1!
b0 .
b0 3
b1000 /
b1000 4
1'
0+
#720000
0'
#740000
0!
b1 .
b1 3
1'
b100 (
b100 -
1+
b100 ,
#760000
0'
#780000
1!
b0 .
b0 3
b1001 /
b1001 4
1'
#800000
0'
#820000
0!
b1 .
b1 3
1'
#840000
0'
#860000
1!
b0 .
b0 3
b1010 /
b1010 4
1'
0+
#880000
0'
#900000
0!
b1 .
b1 3
1'
b101 (
b101 -
1+
b101 ,
#920000
0'
#940000
1!
b0 .
b0 3
b1011 /
b1011 4
1'
#960000
0'
#980000
0!
b1 .
b1 3
1'
#1000000
0'
#1020000
1!
b0 .
b0 3
b1100 /
b1100 4
1'
0+
#1040000
0'
#1060000
0!
b1 .
b1 3
1'
b110 (
b110 -
1+
b110 ,
#1080000
0'
#1100000
1!
b0 .
b0 3
b1101 /
b1101 4
1'
#1120000
0'
#1140000
0!
b1 .
b1 3
1'
#1160000
0'
#1180000
1!
b0 .
b0 3
b1110 /
b1110 4
1'
0+
#1200000
0'
#1220000
0!
b1 .
b1 3
1'
b111 (
b111 -
1+
b111 ,
#1240000
0'
#1260000
1!
b0 .
b0 3
b1111 /
b1111 4
1'
#1280000
0'
#1300000
0!
b1 .
b1 3
1'
#1320000
0'
#1340000
1!
b0 .
b0 3
b10000 /
b10000 4
1'
0+
#1360000
0'
#1380000
0!
b1 .
b1 3
1'
b1000 (
b1000 -
1+
b1000 ,
#1400000
0'
#1420000
1!
b0 .
b0 3
b10001 /
b10001 4
1'
#1440000
0'
#1460000
0!
b1 .
b1 3
1'
#1480000
0'
#1500000
1!
b0 .
b0 3
b10010 /
b10010 4
1'
0+
#1520000
0'
#1540000
0!
b1 .
b1 3
1'
b1001 (
b1001 -
1+
b1001 ,
#1560000
0'
#1580000
1!
b0 .
b0 3
b10011 /
b10011 4
1'
#1600000
0'
#1620000
0!
b1 .
b1 3
1'
#1640000
0'
#1660000
1!
b0 .
b0 3
b10100 /
b10100 4
1'
0+
#1680000
0'
#1700000
0!
b1 .
b1 3
1'
b1010 (
b1010 -
1+
b1010 ,
#1720000
0'
#1740000
1!
b0 .
b0 3
b10101 /
b10101 4
1'
#1760000
0'
#1780000
0!
b1 .
b1 3
1'
#1800000
0'
#1820000
1!
b0 .
b0 3
b10110 /
b10110 4
1'
0+
#1840000
0'
#1860000
0!
b1 .
b1 3
1'
b1011 (
b1011 -
1+
b1011 ,
#1880000
0'
#1900000
1!
b0 .
b0 3
b10111 /
b10111 4
1'
#1920000
0'
#1940000
0!
b1 .
b1 3
1'
#1960000
0'
#1980000
1!
b0 .
b0 3
b11000 /
b11000 4
1'
0+
#2000000
0'
#2020000
0!
b1 .
b1 3
1'
b1100 (
b1100 -
1+
b1100 ,
#2040000
0'
#2060000
1!
b0 .
b0 3
b11001 /
b11001 4
1'
#2080000
0'
#2100000
0!
b1 .
b1 3
1'
#2120000
0'
#2140000
1!
b0 .
b0 3
b11010 /
b11010 4
1'
0+
#2160000
0'
#2180000
0!
b1 .
b1 3
1'
b1101 (
b1101 -
1+
b1101 ,
#2200000
0'
#2220000
1!
b0 .
b0 3
b11011 /
b11011 4
1'
#2240000
0'
#2260000
0!
b1 .
b1 3
1'
#2280000
0'
#2300000
1!
b0 .
b0 3
b11100 /
b11100 4
1'
0+
#2320000
0'
#2340000
0!
b1 .
b1 3
1'
b1110 (
b1110 -
1+
b1110 ,
#2360000
0'
#2380000
1!
b0 .
b0 3
b11101 /
b11101 4
1'
#2400000
0'
#2420000
0!
b1 .
b1 3
1'
#2440000
0'
#2460000
1!
b0 .
b0 3
b11110 /
b11110 4
1'
0+
#2480000
0'
#2500000
0!
b1 .
b1 3
1'
b1111 (
b1111 -
1+
b1111 ,
#2520000
0'
#2540000
1!
b0 .
b0 3
b11111 /
b11111 4
1'
#2560000
0'
#2580000
0!
b1 .
b1 3
1'
#2600000
0'
#2620000
1!
b0 .
b0 3
b100000 /
b100000 4
1'
0+
#2640000
0'
#2660000
1#
0!
b1 .
b1 3
1'
b10000 (
b10000 -
1+
b10000 ,
#2680000
0'
#2700000
1!
b0 .
b0 3
b100001 /
b100001 4
1'
#2720000
0'
#2740000
0#
0&
1'
#2760000
0'
#2780000
1'
0+
#2800000
0'
#2820000
1&
0!
b1 .
b1 3
1'
b10001 (
b10001 -
1+
b10001 ,
#2840000
0'
#2860000
1!
b0 .
b0 3
b100010 /
b100010 4
1'
#2880000
0'
#2900000
0!
b1 .
b1 3
1'
#2920000
0'
#2940000
1!
b0 .
b0 3
b100011 /
b100011 4
1'
0+
#2960000
0'
#2980000
0!
b1 .
b1 3
1'
b10010 (
b10010 -
1+
b10010 ,
#3000000
0'
#3020000
1!
b0 .
b0 3
b100100 /
b100100 4
1'
#3040000
0'
#3060000
0!
b1 .
b1 3
1'
#3080000
0'
#3100000
1!
b0 .
b0 3
b100101 /
b100101 4
1'
0+
#3120000
0'
#3140000
0!
b1 .
b1 3
1'
b10011 (
b10011 -
1+
b10011 ,
#3160000
0'
#3180000
1!
b0 .
b0 3
b100110 /
b100110 4
1'
#3200000
0'
#3220000
0!
b1 .
b1 3
1'
#3240000
0'
#3260000
1!
b0 .
b0 3
b100111 /
b100111 4
1'
0+
#3280000
0'
#3300000
0!
b1 .
b1 3
1'
b10100 (
b10100 -
1+
b10100 ,
#3320000
0'
#3340000
1!
b0 .
b0 3
b101000 /
b101000 4
1'
#3360000
0'
#3380000
0!
b1 .
b1 3
1'
#3400000
0'
#3420000
1!
b0 .
b0 3
b101001 /
b101001 4
1'
0+
#3440000
0'
#3460000
0!
b1 .
b1 3
1'
b10101 (
b10101 -
1+
b10101 ,
#3480000
0'
#3500000
1!
b0 .
b0 3
b101010 /
b101010 4
1'
#3520000
0'
#3540000
0!
b1 .
b1 3
1'
#3560000
0'
#3580000
1!
b0 .
b0 3
b101011 /
b101011 4
1'
0+
#3600000
0'
#3620000
0!
b1 .
b1 3
1'
b10110 (
b10110 -
1+
b10110 ,
#3640000
0'
#3660000
1!
b0 .
b0 3
b101100 /
b101100 4
1'
#3680000
0'
#3700000
0!
b1 .
b1 3
1'
#3720000
0'
#3740000
1!
b0 .
b0 3
b101101 /
b101101 4
1'
0+
#3760000
0'
#3780000
0!
b1 .
b1 3
1'
b10111 (
b10111 -
1+
b10111 ,
#3800000
0'
#3820000
1!
b0 .
b0 3
b101110 /
b101110 4
1'
#3840000
0'
#3860000
0!
b1 .
b1 3
1'
#3880000
0'
#3900000
1!
b0 .
b0 3
b101111 /
b101111 4
1'
0+
#3920000
0'
#3940000
0!
b1 .
b1 3
1'
b11000 (
b11000 -
1+
b11000 ,
#3960000
0'
#3980000
1!
b0 .
b0 3
b110000 /
b110000 4
1'
#4000000
0'
#4020000
0!
b1 .
b1 3
1'
#4040000
0'
#4060000
1!
b0 .
b0 3
b110001 /
b110001 4
1'
0+
#4080000
0'
#4100000
0!
b1 .
b1 3
1'
b11001 (
b11001 -
1+
b11001 ,
#4120000
0'
#4140000
1!
b0 .
b0 3
b110010 /
b110010 4
1'
#4160000
0'
#4180000
0!
b1 .
b1 3
1'
#4200000
0'
#4220000
1!
b0 .
b0 3
b110011 /
b110011 4
1'
0+
#4240000
0'
#4260000
0!
b1 .
b1 3
1'
b11010 (
b11010 -
1+
b11010 ,
#4280000
0'
#4300000
1!
b0 .
b0 3
b110100 /
b110100 4
1'
#4320000
0'
#4340000
0!
b1 .
b1 3
1'
#4360000
0'
#4380000
1!
b0 .
b0 3
b110101 /
b110101 4
1'
0+
#4400000
0'
#4420000
0!
b1 .
b1 3
1'
b11011 (
b11011 -
1+
b11011 ,
#4440000
0'
#4460000
1!
b0 .
b0 3
b110110 /
b110110 4
1'
#4480000
0'
#4500000
0!
b1 .
b1 3
1'
#4520000
0'
#4540000
1!
b0 .
b0 3
b110111 /
b110111 4
1'
0+
#4560000
0'
#4580000
0!
b1 .
b1 3
1'
b11100 (
b11100 -
1+
b11100 ,
#4600000
0'
#4620000
1!
b0 .
b0 3
b111000 /
b111000 4
1'
#4640000
0'
#4660000
0!
b1 .
b1 3
1'
#4680000
0'
#4700000
1!
b0 .
b0 3
b111001 /
b111001 4
1'
0+
#4720000
0'
#4740000
0!
b1 .
b1 3
1'
b11101 (
b11101 -
1+
b11101 ,
#4760000
0'
#4780000
1!
b0 .
b0 3
b111010 /
b111010 4
1'
#4800000
0'
#4820000
0!
b1 .
b1 3
1'
#4840000
0'
#4860000
1!
b0 .
b0 3
b111011 /
b111011 4
1'
0+
#4880000
0'
#4900000
0!
b1 .
b1 3
1'
b11110 (
b11110 -
1+
b11110 ,
#4920000
0'
#4940000
1!
b0 .
b0 3
b111100 /
b111100 4
1'
#4960000
0'
#4980000
0!
b1 .
b1 3
1'
#5000000
0'
#5020000
1!
b0 .
b0 3
b111101 /
b111101 4
1'
0+
#5040000
0'
#5060000
0!
b1 .
b1 3
1'
b11111 (
b11111 -
1+
b11111 ,
#5080000
0'
#5100000
1!
b0 .
b0 3
b111110 /
b111110 4
1'
#5120000
0'
#5140000
0!
b1 .
b1 3
1'
#5160000
0'
#5180000
1!
b0 .
b0 3
b111111 /
b111111 4
1'
0+
#5200000
0'
#5220000
0!
b1 .
b1 3
1'
b100000 (
b100000 -
1+
b100000 ,
#5240000
0'
#5260000
1!
b0 .
b0 3
b1000000 /
b1000000 4
1'
#5280000
0'
#5300000
0!
b1 .
b1 3
1'
#5320000
0'
#5340000
1!
b0 .
b0 3
b1000001 /
b1000001 4
1'
0+
#5360000
0'
#5380000
0!
b1 .
b1 3
1'
b100001 (
b100001 -
1+
b100001 ,
#5400000
0'
#5420000
1!
b0 .
b0 3
b1000010 /
b1000010 4
1'
#5440000
0'
#5460000
0!
b1 .
b1 3
1'
#5480000
0'
#5500000
1!
b0 .
b0 3
b1000011 /
b1000011 4
1'
0+
#5520000
0'
#5540000
0!
b1 .
b1 3
1'
b100010 (
b100010 -
1+
b100010 ,
#5560000
0'
#5580000
1!
b0 .
b0 3
b1000100 /
b1000100 4
1'
#5600000
0'
#5620000
0!
b1 .
b1 3
1'
#5640000
0'
#5660000
1!
b0 .
b0 3
b1000101 /
b1000101 4
1'
0+
#5680000
0'
#5700000
0!
b1 .
b1 3
1'
b100011 (
b100011 -
1+
b100011 ,
#5720000
0'
#5740000
1!
b0 .
b0 3
b1000110 /
b1000110 4
1'
#5760000
0'
#5780000
0!
b1 .
b1 3
1'
#5800000
0'
#5820000
1!
b0 .
b0 3
b1000111 /
b1000111 4
1'
0+
#5840000
0'
#5860000
0!
b1 .
b1 3
1'
b100100 (
b100100 -
1+
b100100 ,
#5880000
0'
#5900000
1!
b0 .
b0 3
b1001000 /
b1001000 4
1'
#5920000
0'
#5940000
0!
b1 .
b1 3
1'
#5960000
0'
#5980000
1!
b0 .
b0 3
b1001001 /
b1001001 4
1'
0+
#6000000
0'
#6020000
0!
b1 .
b1 3
1'
b100101 (
b100101 -
1+
b100101 ,
#6040000
0'
#6060000
1!
b0 .
b0 3
b1001010 /
b1001010 4
1'
#6080000
0'
#6100000
0!
b1 .
b1 3
1'
#6120000
0'
#6140000
1!
b0 .
b0 3
b1001011 /
b1001011 4
1'
0+
#6160000
0'
#6180000
0!
b1 .
b1 3
1'
b100110 (
b100110 -
1+
b100110 ,
#6200000
0'
#6220000
1!
b0 .
b0 3
b1001100 /
b1001100 4
1'
#6240000
0'
#6260000
0!
b1 .
b1 3
1'
#6280000
0'
#6300000
1!
b0 .
b0 3
b1001101 /
b1001101 4
1'
0+
#6320000
0'
#6340000
0!
b1 .
b1 3
1'
b100111 (
b100111 -
1+
b100111 ,
#6360000
0'
#6380000
1!
b0 .
b0 3
b1001110 /
b1001110 4
1'
#6400000
0'
#6420000
0!
b1 .
b1 3
1'
#6440000
0'
#6460000
1!
b0 .
b0 3
b1001111 /
b1001111 4
1'
0+
#6480000
0'
#6500000
0!
b1 .
b1 3
1'
b101000 (
b101000 -
1+
b101000 ,
#6520000
0'
#6540000
1!
b0 .
b0 3
b1010000 /
b1010000 4
1'
#6560000
0'
#6580000
0!
b1 .
b1 3
1'
#6600000
0'
#6620000
1!
b0 .
b0 3
b1010001 /
b1010001 4
1'
0+
#6640000
0'
#6660000
0!
b1 .
b1 3
1'
b101001 (
b101001 -
1+
b101001 ,
#6680000
0'
#6700000
1!
b0 .
b0 3
b1010010 /
b1010010 4
1'
#6720000
0'
#6740000
0!
b1 .
b1 3
1'
#6760000
0'
#6780000
1!
b0 .
b0 3
b1010011 /
b1010011 4
1'
0+
#6800000
0'
#6820000
0!
b1 .
b1 3
1'
b101010 (
b101010 -
1+
b101010 ,
#6840000
0'
#6860000
1!
b0 .
b0 3
b1010100 /
b1010100 4
1'
#6880000
0'
#6900000
0!
b1 .
b1 3
1'
#6920000
0'
#6940000
1!
b0 .
b0 3
b1010101 /
b1010101 4
1'
0+
#6960000
0'
#6980000
0!
b1 .
b1 3
1'
b101011 (
b101011 -
1+
b101011 ,
#7000000
0'
#7020000
1!
b0 .
b0 3
b1010110 /
b1010110 4
1'
#7040000
0'
#7060000
0!
b1 .
b1 3
1'
#7080000
0'
#7100000
1!
b0 .
b0 3
b1010111 /
b1010111 4
1'
0+
#7120000
0'
#7140000
0!
b1 .
b1 3
1'
b101100 (
b101100 -
1+
b101100 ,
#7160000
0'
#7180000
1!
b0 .
b0 3
b1011000 /
b1011000 4
1'
#7200000
0'
#7220000
0!
b1 .
b1 3
1'
#7240000
0'
#7260000
1!
b0 .
b0 3
b1011001 /
b1011001 4
1'
0+
#7280000
0'
#7300000
0!
b1 .
b1 3
1'
b101101 (
b101101 -
1+
b101101 ,
#7320000
0'
#7340000
1!
b0 .
b0 3
b1011010 /
b1011010 4
1'
#7360000
0'
#7380000
0!
b1 .
b1 3
1'
#7400000
0'
#7420000
1!
b0 .
b0 3
b1011011 /
b1011011 4
1'
0+
#7440000
0'
#7460000
0!
b1 .
b1 3
1'
b101110 (
b101110 -
1+
b101110 ,
#7480000
0'
#7500000
1!
b0 .
b0 3
b1011100 /
b1011100 4
1'
#7520000
0'
#7540000
0!
b1 .
b1 3
1'
#7560000
0'
#7580000
1!
b0 .
b0 3
b1011101 /
b1011101 4
1'
0+
#7600000
0'
#7620000
0!
b1 .
b1 3
1'
b101111 (
b101111 -
1+
b101111 ,
#7640000
0'
#7660000
1!
b0 .
b0 3
b1011110 /
b1011110 4
1'
#7680000
0'
#7700000
0!
b1 .
b1 3
1'
#7720000
0'
#7740000
1!
b0 .
b0 3
b1011111 /
b1011111 4
1'
0+
#7760000
0'
#7780000
0!
b1 .
b1 3
1'
b110000 (
b110000 -
1+
b110000 ,
#7800000
0'
#7820000
1!
b0 .
b0 3
b1100000 /
b1100000 4
1'
#7840000
0'
#7860000
0!
b1 .
b1 3
1'
#7880000
0'
#7900000
1!
b0 .
b0 3
b1100001 /
b1100001 4
1'
0+
#7920000
0'
#7940000
0!
b1 .
b1 3
1'
b110001 (
b110001 -
1+
b110001 ,
#7960000
0'
#7980000
1!
b0 .
b0 3
b1100010 /
b1100010 4
1'
#8000000
0'
#8020000
0!
b1 .
b1 3
1'
#8040000
0'
#8060000
1!
b0 .
b0 3
b1100011 /
b1100011 4
1'
0+
#8080000
0'
#8100000
0!
b1 .
b1 3
1'
b110010 (
b110010 -
1+
b110010 ,
#8120000
0'
#8140000
1!
b0 .
b0 3
b1100100 /
b1100100 4
1'
#8160000
0'
#8180000
0!
b1 .
b1 3
1'
#8200000
0'
#8220000
1!
b0 .
b0 3
b1100101 /
b1100101 4
1'
0+
#8240000
0'
#8260000
0!
b1 .
b1 3
1'
b110011 (
b110011 -
1+
b110011 ,
#8280000
0'
#8300000
1!
b0 .
b0 3
b1100110 /
b1100110 4
1'
#8320000
0'
#8340000
0!
b1 .
b1 3
1'
#8360000
0'
#8380000
1!
b0 .
b0 3
b1100111 /
b1100111 4
1'
0+
#8400000
0'
#8420000
0!
b1 .
b1 3
1'
b110100 (
b110100 -
1+
b110100 ,
#8440000
0'
#8460000
1!
b0 .
b0 3
b1101000 /
b1101000 4
1'
#8480000
0'
#8500000
0!
b1 .
b1 3
1'
#8520000
0'
#8540000
1!
b0 .
b0 3
b1101001 /
b1101001 4
1'
0+
#8560000
0'
#8580000
0!
b1 .
b1 3
1'
b110101 (
b110101 -
1+
b110101 ,
#8600000
0'
#8620000
1!
b0 .
b0 3
b1101010 /
b1101010 4
1'
#8640000
0'
#8660000
0!
b1 .
b1 3
1'
#8680000
0'
#8700000
1!
b0 .
b0 3
b1101011 /
b1101011 4
1'
0+
#8720000
0'
#8740000
0!
b1 .
b1 3
1'
b110110 (
b110110 -
1+
b110110 ,
#8760000
0'
#8780000
1!
b0 .
b0 3
b1101100 /
b1101100 4
1'
#8800000
0'
#8820000
0!
b1 .
b1 3
1'
#8840000
0'
#8860000
1!
b0 .
b0 3
b1101101 /
b1101101 4
1'
0+
#8880000
0'
#8900000
0!
b1 .
b1 3
1'
b110111 (
b110111 -
1+
b110111 ,
#8920000
0'
#8940000
1!
b0 .
b0 3
b1101110 /
b1101110 4
1'
#8960000
0'
#8980000
0!
b1 .
b1 3
1'
#9000000
0'
#9020000
1!
b0 .
b0 3
b1101111 /
b1101111 4
1'
0+
#9040000
0'
#9060000
0!
b1 .
b1 3
1'
b111000 (
b111000 -
1+
b111000 ,
#9080000
0'
#9100000
1!
b0 .
b0 3
b1110000 /
b1110000 4
1'
#9120000
0'
#9140000
0!
b1 .
b1 3
1'
#9160000
0'
#9180000
1!
b0 .
b0 3
b1110001 /
b1110001 4
1'
0+
#9200000
0'
#9220000
0!
b1 .
b1 3
1'
b111001 (
b111001 -
1+
b111001 ,
#9240000
0'
#9260000
1!
b0 .
b0 3
b1110010 /
b1110010 4
1'
#9280000
0'
#9300000
0!
b1 .
b1 3
1'
#9320000
0'
#9340000
1!
b0 .
b0 3
b1110011 /
b1110011 4
1'
0+
#9360000
0'
#9380000
0!
b1 .
b1 3
1'
b111010 (
b111010 -
1+
b111010 ,
#9400000
0'
#9420000
1!
b0 .
b0 3
b1110100 /
b1110100 4
1'
#9440000
0'
#9460000
0!
b1 .
b1 3
1'
#9480000
0'
#9500000
1!
b0 .
b0 3
b1110101 /
b1110101 4
1'
0+
#9520000
0'
#9540000
0!
b1 .
b1 3
1'
b111011 (
b111011 -
1+
b111011 ,
#9560000
0'
#9580000
1!
b0 .
b0 3
b1110110 /
b1110110 4
1'
#9600000
0'
#9620000
0!
b1 .
b1 3
1'
#9640000
0'
#9660000
1!
b0 .
b0 3
b1110111 /
b1110111 4
1'
0+
#9680000
0'
#9700000
0!
b1 .
b1 3
1'
b111100 (
b111100 -
1+
b111100 ,
#9720000
0'
#9740000
1!
b0 .
b0 3
b1111000 /
b1111000 4
1'
#9760000
0'
#9780000
0!
b1 .
b1 3
1'
#9800000
0'
#9820000
1!
b0 .
b0 3
b1111001 /
b1111001 4
1'
0+
#9840000
0'
#9860000
0!
b1 .
b1 3
1'
b111101 (
b111101 -
1+
b111101 ,
#9880000
0'
#9900000
1!
b0 .
b0 3
b1111010 /
b1111010 4
1'
#9920000
0'
#9940000
0!
b1 .
b1 3
1'
#9960000
0'
#9980000
1!
b0 .
b0 3
b1111011 /
b1111011 4
1'
0+
#10000000
0'
#10020000
0!
b1 .
b1 3
1'
b111110 (
b111110 -
1+
b111110 ,
#10040000
0'
#10060000
1!
b0 .
b0 3
b1111100 /
b1111100 4
1'
#10080000
0'
#10100000
0!
b1 .
b1 3
1'
#10120000
0'
#10140000
1!
b0 .
b0 3
b1111101 /
b1111101 4
1'
0+
#10160000
0'
#10180000
0!
b1 .
b1 3
1'
b111111 (
b111111 -
1+
b111111 ,
#10200000
0'
#10220000
1!
b0 .
b0 3
b1111110 /
b1111110 4
1'
#10240000
0'
#10260000
0!
b1 .
b1 3
1'
#10280000
0'
#10300000
1!
b0 .
b0 3
b1111111 /
b1111111 4
1'
0+
#10320000
0'
#10340000
0!
b1 .
b1 3
1'
b1000000 (
b1000000 -
1+
b1000000 ,
#10360000
0'
#10380000
1!
b0 .
b0 3
b10000000 /
b10000000 4
1'
#10400000
0'
#10420000
0!
b1 .
b1 3
1'
#10440000
0'
#10460000
1!
b0 .
b0 3
b10000001 /
b10000001 4
1'
0+
#10480000
0'
#10500000
0!
b1 .
b1 3
1'
b1000001 (
b1000001 -
1+
b1000001 ,
#10520000
0'
#10540000
1!
b0 .
b0 3
b10000010 /
b10000010 4
1'
#10560000
0'
#10580000
0!
b1 .
b1 3
1'
#10600000
0'
#10620000
1!
b0 .
b0 3
b10000011 /
b10000011 4
1'
0+
#10640000
0'
#10660000
0!
b1 .
b1 3
1'
b1000010 (
b1000010 -
1+
b1000010 ,
#10680000
0'
#10700000
1!
b0 .
b0 3
b10000100 /
b10000100 4
1'
#10720000
0'
#10740000
0!
b1 .
b1 3
1'
#10760000
0'
#10780000
1!
b0 .
b0 3
b10000101 /
b10000101 4
1'
0+
#10800000
0'
#10820000
0!
b1 .
b1 3
1'
b1000011 (
b1000011 -
1+
b1000011 ,
#10840000
0'
#10860000
1!
b0 .
b0 3
b10000110 /
b10000110 4
1'
#10880000
0'
#10900000
0!
b1 .
b1 3
1'
#10920000
0'
#10940000
1!
b0 .
b0 3
b10000111 /
b10000111 4
1'
0+
#10960000
0'
#10980000
0!
b1 .
b1 3
1'
b1000100 (
b1000100 -
1+
b1000100 ,
#11000000
0'
#11020000
1!
b0 .
b0 3
b10001000 /
b10001000 4
1'
#11040000
0'
#11060000
0!
b1 .
b1 3
1'
#11080000
0'
#11100000
1!
b0 .
b0 3
b10001001 /
b10001001 4
1'
0+
#11120000
0'
#11140000
0!
b1 .
b1 3
1'
b1000101 (
b1000101 -
1+
b1000101 ,
#11160000
0'
#11180000
1!
b0 .
b0 3
b10001010 /
b10001010 4
1'
#11200000
0'
#11220000
0!
b1 .
b1 3
1'
#11240000
0'
#11260000
1!
b0 .
b0 3
b10001011 /
b10001011 4
1'
0+
#11280000
0'
#11300000
0!
b1 .
b1 3
1'
b1000110 (
b1000110 -
1+
b1000110 ,
#11320000
0'
#11340000
1!
b0 .
b0 3
b10001100 /
b10001100 4
1'
#11360000
0'
#11380000
0!
b1 .
b1 3
1'
#11400000
0'
#11420000
1!
b0 .
b0 3
b10001101 /
b10001101 4
1'
0+
#11440000
0'
#11460000
0!
b1 .
b1 3
1'
b1000111 (
b1000111 -
1+
b1000111 ,
#11480000
0'
#11500000
1!
b0 .
b0 3
b10001110 /
b10001110 4
1'
#11520000
0'
#11540000
0!
b1 .
b1 3
1'
#11560000
0'
#11580000
1!
b0 .
b0 3
b10001111 /
b10001111 4
1'
0+
#11600000
0'
#11620000
0!
b1 .
b1 3
1'
b1001000 (
b1001000 -
1+
b1001000 ,
#11640000
0'
#11660000
1!
b0 .
b0 3
b10010000 /
b10010000 4
1'
#11680000
0'
#11700000
0!
b1 .
b1 3
1'
#11720000
0'
#11740000
1!
b0 .
b0 3
b10010001 /
b10010001 4
1'
0+
#11760000
0'
#11780000
0!
b1 .
b1 3
1'
b1001001 (
b1001001 -
1+
b1001001 ,
#11800000
0'
#11820000
1!
b0 .
b0 3
b10010010 /
b10010010 4
1'
#11840000
0'
#11860000
0!
b1 .
b1 3
1'
#11880000
0'
#11900000
1!
b0 .
b0 3
b10010011 /
b10010011 4
1'
0+
#11920000
0'
#11940000
0!
b1 .
b1 3
1'
b1001010 (
b1001010 -
1+
b1001010 ,
#11960000
0'
#11980000
1!
b0 .
b0 3
b10010100 /
b10010100 4
1'
#12000000
0'
#12020000
0!
b1 .
b1 3
1'
#12040000
0'
#12060000
1!
b0 .
b0 3
b10010101 /
b10010101 4
1'
0+
#12080000
0'
#12100000
0!
b1 .
b1 3
1'
b1001011 (
b1001011 -
1+
b1001011 ,
#12120000
0'
#12140000
1!
b0 .
b0 3
b10010110 /
b10010110 4
1'
#12160000
0'
#12180000
0!
b1 .
b1 3
1'
#12200000
0'
#12220000
1!
b0 .
b0 3
b10010111 /
b10010111 4
1'
0+
#12240000
0'
#12260000
0!
b1 .
b1 3
1'
b1001100 (
b1001100 -
1+
b1001100 ,
#12280000
0'
#12300000
1!
b0 .
b0 3
b10011000 /
b10011000 4
1'
#12320000
0'
#12340000
0!
b1 .
b1 3
1'
#12360000
0'
#12380000
1!
b0 .
b0 3
b10011001 /
b10011001 4
1'
0+
#12400000
0'
#12420000
0!
b1 .
b1 3
1'
b1001101 (
b1001101 -
1+
b1001101 ,
#12440000
0'
#12460000
1!
b0 .
b0 3
b10011010 /
b10011010 4
1'
#12480000
0'
#12500000
0!
b1 .
b1 3
1'
#12520000
0'
#12540000
1!
b0 .
b0 3
b10011011 /
b10011011 4
1'
0+
#12560000
0'
#12580000
0!
b1 .
b1 3
1'
b1001110 (
b1001110 -
1+
b1001110 ,
#12600000
0'
#12620000
1!
b0 .
b0 3
b10011100 /
b10011100 4
1'
#12640000
0'
#12660000
0!
b1 .
b1 3
1'
#12680000
0'
#12700000
1!
b0 .
b0 3
b10011101 /
b10011101 4
1'
0+
#12720000
0'
#12740000
0!
b1 .
b1 3
1'
b1001111 (
b1001111 -
1+
b1001111 ,
#12760000
0'
#12780000
1!
b0 .
b0 3
b10011110 /
b10011110 4
1'
#12800000
0'
#12820000
0!
b1 .
b1 3
1'
#12840000
0'
#12860000
1!
b0 .
b0 3
b10011111 /
b10011111 4
1'
0+
#12880000
0'
#12900000
0!
b1 .
b1 3
1'
b1010000 (
b1010000 -
1+
b1010000 ,
#12920000
0'
#12940000
1!
b0 .
b0 3
b10100000 /
b10100000 4
1'
#12960000
0'
#12980000
0!
b1 .
b1 3
1'
#13000000
0'
#13020000
1!
b0 .
b0 3
b10100001 /
b10100001 4
1'
0+
#13040000
0'
#13060000
0!
b1 .
b1 3
1'
b1010001 (
b1010001 -
1+
b1010001 ,
#13080000
0'
#13100000
1!
b0 .
b0 3
b10100010 /
b10100010 4
1'
#13120000
0'
#13140000
0!
b1 .
b1 3
1'
#13160000
0'
#13180000
1!
b0 .
b0 3
b10100011 /
b10100011 4
1'
0+
#13200000
0'
#13220000
0!
b1 .
b1 3
1'
b1010010 (
b1010010 -
1+
b1010010 ,
#13240000
0'
#13260000
1!
b0 .
b0 3
b10100100 /
b10100100 4
1'
#13280000
0'
#13300000
0!
b1 .
b1 3
1'
#13320000
0'
#13340000
1!
b0 .
b0 3
b10100101 /
b10100101 4
1'
0+
#13360000
0'
#13380000
0!
b1 .
b1 3
1'
b1010011 (
b1010011 -
1+
b1010011 ,
#13400000
0'
#13420000
1!
b0 .
b0 3
b10100110 /
b10100110 4
1'
#13440000
0'
#13460000
0!
b1 .
b1 3
1'
#13480000
0'
#13500000
1!
b0 .
b0 3
b10100111 /
b10100111 4
1'
0+
#13520000
0'
#13540000
0!
b1 .
b1 3
1'
b1010100 (
b1010100 -
1+
b1010100 ,
#13560000
0'
#13580000
1!
b0 .
b0 3
b10101000 /
b10101000 4
1'
#13600000
0'
#13620000
0!
b1 .
b1 3
1'
#13640000
0'
#13660000
1!
b0 .
b0 3
b10101001 /
b10101001 4
1'
0+
#13680000
0'
