src/spi/waveforms/tb.vcd
$date
	Mon Mar 30 23:54:33 2026
$end
$version
	Icarus Verilog
$end
$timescale
	1ps
$end
$scope module tb_test___recvdata $end
$var wire 1 ! busy_from_read_fifo__consumer_spi $end
$var wire 1 " busy_from_read_fifo__spi_slave $end
$var wire 1 # busy_from_write_fifo__consumer_spi $end
$var wire 1 $ busy_from_write_fifo__spi_slave $end
$var wire 1 % reset_fifos $end
$var wire 1 & wr_req__spi_slave $end
$var wire 1 ' wr_req__consumer_spi $end
$var wire 1 ( wr_ready__spi_slave $end
$var wire 1 ) wr_ready__consumer_spi $end
$var wire 1 * start_crc32____for_consumer_spi_mods $end
$var wire 1 + rd_req__spi_slave $end
$var wire 1 , rd_req__consumer_spi $end
$var wire 1 - rd_ready__spi_slave $end
$var wire 1 . rd_ready__consumer_spi $end
$var wire 1 / process_new_data_in_crc32_module____for_consumer_spi_mods $end
$var wire 64 0 op_args [63:0] $end
$var wire 2 1 module_id_sel [1:0] $end
$var wire 1 2 miso $end
$var wire 1 3 full__spi_slave $end
$var wire 1 4 full__consumer_spi $end
$var wire 1 5 finish_calc_crc____for_consumer_spi_mods $end
$var wire 1 6 empty__spi_slave $end
$var wire 1 7 empty__consumer_spi $end
$var wire 8 8 dout__spi_slave [7:0] $end
$var wire 8 9 dout__consumer_spi [7:0] $end
$var wire 8 : din__spi_slave [7:0] $end
$var wire 8 ; din__consumer_spi [7:0] $end
$var wire 8 < data_in_crc32____for_consumer_spi_mods [7:0] $end
$var wire 32 = crc_out____for_consumer_spi_mods [31:0] $end
$var wire 1 > crc_done____for_consumer_spi_mods $end
$var wire 32 ? crc_bytes_processed____for_consumer_spi_mods [31:0] $end
$var wire 1 @ crc32_module_is_ready_for_recv_data____for_consumer_spi_mods $end
$var wire 1 A busy___fifo_spi_slave_write__and__fifo_spi_consumer_read $end
$var wire 1 B busy___fifo_spi_slave_read__and__fifo_spi_consumer_write $end
$var wire 3 C awake_module [2:0] $end
$var reg 1 D clk $end
$var reg 32 E crc [31:0] $end
$var reg 1 F cs $end
$var reg 8 G data_temp [7:0] $end
$var reg 8 H data_temp2 [7:0] $end
$var reg 1 I mosi $end
$var reg 1 J rst_n $end
$var reg 1 K sclk $end
$var integer 32 L i [31:0] $end
$var integer 32 M j [31:0] $end
$scope function crc32_byte $end
$var reg 32 N crc [31:0] $end
$var reg 32 O crc_in [31:0] $end
$var reg 8 P data [7:0] $end
$var integer 32 Q j [31:0] $end
$upscope $end
$scope module consumer_spi_0 $end
$var wire 1 R busy_from_read_fifo $end
$var wire 1 S busy_from_write_fifo $end
$var wire 1 D clk $end
$var wire 32 T crc_bytes_processed [31:0] $end
$var wire 1 U crc_done $end
$var wire 32 V crc_out [31:0] $end
$var wire 1 F cs $end
$var wire 8 W data_line_from_read_fifo [7:0] $end
$var wire 1 X empty_fifo $end
$var wire 1 Y full_fifo $end
$var wire 1 Z module_stopped $end
$var wire 1 [ rd_ready_fifo $end
$var wire 1 \ ready_for_recv_data $end
$var wire 1 ] rst_n $end
$var wire 1 ^ wr_ready_fifo $end
$var wire 1 _ sync__state_write_fifo $end
$var wire 1 ` sync__state_read_fifo $end
$var wire 1 a sync__state_buffer $end
$var wire 2 b op_selected [1:0] $end
$var reg 3 c awake_module [2:0] $end
$var reg 3 d bytes_crc_recv [2:0] $end
$var reg 3 e bytes_crc_sent [2:0] $end
$var reg 32 f crc_computed [31:0] $end
$var reg 32 g crc_recv [31:0] $end
$var reg 32 h crc_to_send [31:0] $end
$var reg 1 i cs_negedge $end
$var reg 1 j cs_posedge $end
$var reg 1 k cs_prev $end
$var reg 1 l cs_prev_prev $end
$var reg 8 m data_line_from_write_fifo [7:0] $end
$var reg 8 n data_line_to_write_in_crc32 [7:0] $end
$var reg 4 o diff_of_msg_recv_about_crc_to__crc_is_correct [3:0] $end
$var reg 1 p finish_calc_crc $end
$var reg 2 q module_id_sel [1:0] $end
$var reg 4 r n_bytes_recv_from_fifo_to_define_of_op_args [3:0] $end
$var reg 32 s n_bytes_sent_to_process_crc [31:0] $end
$var reg 8 t op [7:0] $end
$var reg 64 u op_args [63:0] $end
$var reg 1 v op_defined $end
$var reg 1 w process_new_data_in_crc32_module $end
$var reg 1 x rd_req_fifo $end
$var reg 1 y read_fifo $end
$var reg 1 z read_fifo_posedge $end
$var reg 1 { read_fifo_processed $end
$var reg 1 | sending_crc_resulted_from_module_op $end
$var reg 1 } start_crc32 $end
$var reg 5 ~ state [4:0] $end
$var reg 5 !" state_delay [4:0] $end
$var reg 2 "" state_read_fifo [1:0] $end
$var reg 2 #" state_read_fifo_prev [1:0] $end
$var reg 2 $" state_write_fifo [1:0] $end
$var reg 2 %" state_write_fifo_prev [1:0] $end
$var reg 4 &" time_that_stage_hold [3:0] $end
$var reg 1 '" wr_req_fifo $end
$var reg 1 (" write_fifo $end
$var reg 1 )" write_fifo_posedge $end
$var reg 1 *" write_fifo_processed $end
$upscope $end
$scope module crc32__consumer_spi $end
$var wire 1 D clk $end
$var wire 1 F cs $end
$var wire 8 +" data_in [7:0] $end
$var wire 8 ," din_fifo [7:0] $end
$var wire 1 5 finish_calc_crc $end
$var wire 1 / process_new_data $end
$var wire 1 -" rst_n $end
$var wire 1 * start $end
$var wire 1 ." wr_ready_fifo $end
$var wire 1 /" sync_stage__write_fifo_crc32 $end
$var wire 1 0" sync_stage $end
$var wire 1 1" rd_ready_fifo $end
$var wire 1 2" fifo_full $end
$var wire 1 3" fifo_empty $end
$var wire 1 4" fifo_crc32_is_busy $end
$var wire 8 5" dout_fifo [7:0] $end
$var reg 3 6" bit_cnt [2:0] $end
$var reg 32 7" crc [31:0] $end
$var reg 32 8" crc_bytes_processed [31:0] $end
$var reg 32 9" crc_out [31:0] $end
$var reg 3 :" delay_stage [2:0] $end
$var reg 1 > done $end
$var reg 1 ;" rd_req_fifo $end
$var reg 1 @ ready_for_recv_data $end
$var reg 3 <" state [2:0] $end
$var reg 2 =" state___write_fifo_crc32 [1:0] $end
$var reg 2 >" state___write_fifo_crc32___delay [1:0] $end
$var reg 4 ?" time_that_stage_hold [3:0] $end
$var reg 4 @" time_that_state___write_fifo_crc32__hold [3:0] $end
$var reg 1 A" wr_req_fifo $end
$scope module fifo_crc32 $end
$var wire 1 D clk $end
$var wire 1 F cs $end
$var wire 8 B" din [7:0] $end
$var wire 1 ;" rd_req $end
$var wire 1 -" rst_n $end
$var wire 1 A" wr_req $end
$var wire 1 C" sync_state $end
$var reg 1 4" busy $end
$var reg 1 D" clear_poseedge_rd_req_happened $end
$var reg 1 E" clear_poseedge_wr_req_happened $end
$var reg 10 F" count [9:0] $end
$var reg 8 G" dout [7:0] $end
$var reg 1 3" empty $end
$var reg 1 2" full $end
$var reg 1 H" last_op_was_write $end
$var reg 1 I" poseedge_rd_req_happened $end
$var reg 1 J" poseedge_wr_req_happened $end
$var reg 10 K" rd_ptr [9:0] $end
$var reg 1 1" rd_ready $end
$var reg 1 L" rd_req_prev $end
$var reg 3 M" state [2:0] $end
$var reg 3 N" state_delay [2:0] $end
$var reg 10 O" wr_ptr [9:0] $end
$var reg 1 ." wr_ready $end
$var reg 1 P" wr_req_prev $end
$upscope $end
$upscope $end
$scope module fibonacci0 $end
$var wire 1 Q" busy_from_read_fifo $end
$var wire 1 R" busy_from_write_fifo $end
$var wire 1 D clk $end
$var wire 32 S" crc_bytes_processed [31:0] $end
$var wire 1 T" crc_done $end
$var wire 32 U" crc_out [31:0] $end
$var wire 8 V" data_line_from_read_fifo [7:0] $end
$var wire 1 W" empty_fifo $end
$var wire 1 X" full_fifo $end
$var wire 64 Y" op_args [63:0] $end
$var wire 1 Z" rd_ready_fifo $end
$var wire 1 [" ready_for_recv_data $end
$var wire 1 \" rst_n $end
$var wire 1 ]" wr_ready_fifo $end
$var wire 1 ^" sync__state $end
$var wire 16 _" n_elements_to_compute [15:0] $end
$var reg 8 `" data_line_from_write_fifo [7:0] $end
$var reg 8 a" data_line_to_write_in_crc32 [7:0] $end
$var reg 8 b" f1 [7:0] $end
$var reg 8 c" f2 [7:0] $end
$var reg 8 d" f3 [7:0] $end
$var reg 1 e" finish_calc_crc $end
$var reg 16 f" n_elements_computed [15:0] $end
$var reg 16 g" n_elements_sent_to_external_world [15:0] $end
$var reg 1 h" process_new_data_in_crc32_module $end
$var reg 1 i" rd_req_fifo $end
$var reg 1 j" start_crc32 $end
$var reg 4 k" state [3:0] $end
$var reg 4 l" state_prev [3:0] $end
$var reg 1 m" stopped $end
$var reg 1 n" wr_req_fifo $end
$upscope $end
$scope module fifo_spi_slave_read__and__fifo_spi_consumer_write $end
$var wire 1 D clk $end
$var wire 1 F cs $end
$var wire 8 o" din [7:0] $end
$var wire 1 p" rst_n $end
$var wire 1 ' wr_req $end
$var wire 1 q" sync_state $end
$var wire 1 + rd_req $end
$var reg 1 B busy $end
$var reg 1 r" clear_poseedge_rd_req_happened $end
$var reg 1 s" clear_poseedge_wr_req_happened $end
$var reg 10 t" count [9:0] $end
$var reg 8 u" dout [7:0] $end
$var reg 1 6 empty $end
$var reg 1 4 full $end
$var reg 1 v" last_op_was_write $end
$var reg 1 w" poseedge_rd_req_happened $end
$var reg 1 x" poseedge_wr_req_happened $end
$var reg 10 y" rd_ptr [9:0] $end
$var reg 1 - rd_ready $end
$var reg 1 z" rd_req_prev $end
$var reg 3 {" state [2:0] $end
$var reg 3 |" state_delay [2:0] $end
$var reg 10 }" wr_ptr [9:0] $end
$var reg 1 ) wr_ready $end
$var reg 1 ~" wr_req_prev $end
$upscope $end
$scope module fifo_spi_slave_write__and__fifo_spi_consumer_read $end
$var wire 1 D clk $end
$var wire 1 F cs $end
$var wire 1 , rd_req $end
$var wire 1 !# rst_n $end
$var wire 1 & wr_req $end
$var wire 1 "# sync_state $end
$var wire 8 ## din [7:0] $end
$var reg 1 A busy $end
$var reg 1 $# clear_poseedge_rd_req_happened $end
$var reg 1 %# clear_poseedge_wr_req_happened $end
$var reg 10 &# count [9:0] $end
$var reg 8 '# dout [7:0] $end
$var reg 1 7 empty $end
$var reg 1 3 full $end
$var reg 1 (# last_op_was_write $end
$var reg 1 )# poseedge_rd_req_happened $end
$var reg 1 *# poseedge_wr_req_happened $end
$var reg 10 +# rd_ptr [9:0] $end
$var reg 1 . rd_ready $end
$var reg 1 ,# rd_req_prev $end
$var reg 3 -# state [2:0] $end
$var reg 3 .# state_delay [2:0] $end
$var reg 10 /# wr_ptr [9:0] $end
$var reg 1 ( wr_ready $end
$var reg 1 0# wr_req_prev $end
$upscope $end
$scope module recvdata0 $end
$var wire 1 1# busy_from_read_fifo $end
$var wire 1 2# busy_from_write_fifo $end
$var wire 1 D clk $end
$var wire 32 3# crc_bytes_processed [31:0] $end
$var wire 1 4# crc_done $end
$var wire 32 5# crc_out [31:0] $end
$var wire 8 6# data_line_from_read_fifo [7:0] $end
$var wire 1 7# empty_fifo $end
$var wire 1 8# full_fifo $end
$var wire 64 9# op_args [63:0] $end
$var wire 1 :# rd_ready_fifo $end
$var wire 1 ;# ready_for_recv_data $end
$var wire 1 <# rst_n $end
$var wire 1 =# wr_ready_fifo $end
$var wire 1 ># sync__state $end
$var wire 16 ?# n_elements_to_compute [15:0] $end
$var reg 1 @# crc_started $end
$var reg 8 A# data_line_from_write_fifo [7:0] $end
$var reg 8 B# data_line_to_write_in_crc32 [7:0] $end
$var reg 1 C# finish_calc_crc $end
$var reg 16 D# n_elements_computed [15:0] $end
$var reg 1 E# process_new_data_in_crc32_module $end
$var reg 1 F# rd_req_fifo $end
$var reg 1 G# start_crc32 $end
$var reg 4 H# state [3:0] $end
$var reg 4 I# state_prev [3:0] $end
$var reg 1 J# stopped $end
$var reg 4 K# time_that_stage_hold [3:0] $end
$var reg 1 L# wr_req_fifo $end
$upscope $end
$scope module spi_slave_0 $end
$var wire 1 B busy_from_read_fifo $end
$var wire 1 A busy_from_write_fifo $end
$var wire 1 D clk $end
$var wire 1 F cs $end
$var wire 8 M# data_line_from_read_fifo [7:0] $end
$var wire 1 6 empty_fifo $end
$var wire 1 3 full_fifo $end
$var wire 1 I mosi $end
$var wire 1 - rd_ready_fifo $end
$var wire 1 N# rst_n $end
$var wire 1 K sclk $end
$var wire 1 ( wr_ready_fifo $end
$var wire 1 O# sync__state_write_fifo $end
$var wire 1 P# sync__state_read_fifo $end
$var reg 4 Q# bit_count_read [3:0] $end
$var reg 4 R# bit_count_write [3:0] $end
$var reg 8 S# data_line_from_write_fifo [7:0] $end
$var reg 1 2 miso $end
$var reg 1 T# previous_slck_read $end
$var reg 1 U# previous_slck_write $end
$var reg 1 + rd_req_fifo $end
$var reg 1 V# read_fifo $end
$var reg 1 W# read_fifo_posedge $end
$var reg 1 X# read_fifo_processed $end
$var reg 8 Y# shift_reg_in [7:0] $end
$var reg 1 Z# spi_negedge_read $end
$var reg 1 [# spi_posedge_write $end
$var reg 2 \# state_read_fifo [1:0] $end
$var reg 2 ]# state_read_fifo_prev [1:0] $end
$var reg 3 ^# state_spi_comm_read [2:0] $end
$var reg 3 _# state_spi_comm_write [2:0] $end
$var reg 2 `# state_write_fifo [1:0] $end
$var reg 2 a# state_write_fifo_prev [1:0] $end
$var reg 1 & wr_req_fifo $end
$var reg 1 b# write_fifo $end
$var reg 1 c# write_fifo_posedge $end
$var reg 1 d# write_fifo_processed $end
$upscope $end
$upscope $end
$enddefinitions $end
#0
$dumpvars
xd#
xc#
xb#
bx a#
bx `#
bx _#
bx ^#
bx ]#
bx \#
x[#
xZ#
bx Y#
xX#
xW#
xV#
xU#
xT#
bx S#
bx R#
bx Q#
xP#
xO#
0N#
bx M#
xL#
bx K#
xJ#
bx I#
bx H#
xG#
xF#
xE#
bx D#
xC#
bx B#
bx A#
x@#
bx ?#
x>#
x=#
x<#
x;#
x:#
bx 9#
x8#
x7#
bx 6#
bx 5#
x4#
bx 3#
x2#
x1#
x0#
bx /#
bx .#
bx -#
x,#
bx +#
x*#
x)#
x(#
bx '#
bx &#
x%#
x$#
bx ##
x"#
0!#
x~"
bx }"
bx |"
bx {"
xz"
bx y"
xx"
xw"
xv"
bx u"
bx t"
xs"
xr"
xq"
0p"
bx o"
xn"
xm"
bx l"
bx k"
xj"
xi"
xh"
bx g"
bx f"
xe"
bx d"
bx c"
bx b"
bx a"
bx `"
bx _"
x^"
x]"
x\"
x["
xZ"
bx Y"
xX"
xW"
bx V"
bx U"
xT"
bx S"
xR"
xQ"
xP"
bx O"
bx N"
bx M"
xL"
bx K"
xJ"
xI"
xH"
bx G"
bx F"
xE"
xD"
xC"
bx B"
xA"
bx @"
bx ?"
bx >"
bx ="
bx <"
x;"
bx :"
bx 9"
bx 8"
bx 7"
bx 6"
bx 5"
x4"
x3"
x2"
x1"
x0"
x/"
x."
0-"
bx ,"
bx +"
x*"
x)"
x("
x'"
bx &"
bx %"
bx $"
bx #"
bx ""
bx !"
bx ~
x}
x|
x{
xz
xy
xx
xw
xv
bx u
bx t
bx s
bx r
bx q
xp
bx o
bx n
bx m
xl
xk
xj
xi
bx h
bx g
bx f
bx e
bx d
bx c
bx b
xa
x`
x_
x^
0]
x\
x[
xZ
xY
xX
bx W
bx V
xU
bx T
xS
xR
b1000 Q
b1010 P
b11011000111110000010011111101011 O
b11010111110101010010101011001001 N
bx M
b1001 L
0K
xJ
0I
bx H
bx G
1F
b101000001010101101010100110110 E
0D
bx C
xB
xA
x@
bx ?
x>
bx =
bx <
bx ;
bx :
bx 9
bx 8
x7
x6
x5
x4
x3
x2
bx 1
bx 0
x/
x.
x-
x,
x+
x*
x)
x(
x'
x&
0%
x$
x#
x"
x!
$end
#20000
0<#
0\"
b0 5#
b0 U"
01#
0Q"
02#
0R"
05
0/
0*
zZ
b0 b
0'
0,
b0 3#
b0 S"
b0 T
04#
0T"
1U
0;#
0["
1\
0=#
0]"
0^
08#
0X"
0Y
0:#
0Z"
0[
07#
0W"
1X
b0 6#
b0 V"
b0 W
b0 k"
b0 H#
b0 K#
0|
b0 C
b0 c
b0 1
b0 q
b0 &"
b0 d
b0 e
b0 s
0p
0w
0}
b0 r
0v
b0 t
1l
1k
0i
0j
0*"
0'"
1_
b0 %"
b0 $"
0)"
0x
0{
1`
b0 #"
b0 ""
0z
0b#
0U#
b1 _#
b0 Y#
b0 R#
0[#
0d#
0&
1O#
b0 a#
b0 `#
0c#
02
0V#
0T#
b1 ^#
b0 Q#
0+
0X#
1P#
b0 ]#
b0 \#
0W#
0E"
0D"
0H"
01"
0."
02"
13"
b0 5"
b0 G"
b0 F"
b0 K"
b0 O"
b0 M"
0J"
0I"
b0 ?
b0 8"
b0 ?"
0;"
1>
b11111111111111111111111111111111 7"
b0 <"
b0 @"
1@
0A"
b0 ="
0s"
0r"
0v"
0-
0)
04
16
b0 :
b0 u"
b0 M#
b0 t"
b0 y"
b0 }"
b0 {"
0x"
0w"
0%#
0$#
0(#
0.
0(
03
17
b0 ;
b0 '#
b0 &#
b0 +#
b0 /#
b0 -#
0*#
0)#
1D
#40000
0D
#60000
0E#
0G#
0@#
b0 A#
0F#
0L#
0C#
1J#
0>#
b1111 I#
b0 D#
b0 g"
b0 `"
0i"
0n"
0e"
1m"
0^"
b1111 l"
b0 f"
b1 c"
b1 b"
1D
#80000
0D
#100000
1D
#120000
0D
#140000
1D
#160000
0D
#180000
1D
#200000
0D
#220000
1D
#240000
0D
#260000
1D
#280000
0D
#300000
1D
#320000
0D
#340000
1D
#360000
0D
#380000
1D
#400000
0D
#420000
1D
#440000
0D
#460000
1D
#480000
0D
#500000
1D
#520000
0D
#540000
1D
#560000
0D
#580000
1D
#600000
0D
#620000
1D
#640000
0D
#660000
1D
#680000
0D
#700000
1D
#720000
0D
#740000
1D
#760000
0D
#780000
1D
#800000
0D
#820000
1D
#840000
0D
#860000
1D
#880000
0D
#900000
1D
#920000
0D
#940000
1D
#960000
0D
#980000
1D
#1000000
0D
#1020000
1D
#1040000
0D
#1060000
1D
#1080000
0D
#1100000
1D
#1120000
0D
#1140000
1D
#1160000
0D
#1180000
1D
#1200000
0D
#1220000
1D
#1240000
0D
#1260000
1D
#1280000
0D
#1300000
1D
#1320000
0D
#1340000
1D
#1360000
0D
#1380000
1D
#1400000
0D
#1420000
1D
#1440000
0D
#1460000
1D
#1480000
0D
#1500000
1D
#1520000
0D
#1540000
1D
#1560000
0D
#1580000
1D
#1600000
0D
#1620000
1D
#1640000
0D
#1660000
1D
#1680000
0D
#1700000
1D
#1720000
0D
#1740000
1D
#1760000
0D
#1780000
1D
#1800000
0D
#1820000
1D
#1840000
0D
#1860000
1D
#1880000
0D
#1900000
1D
#1920000
0D
#1940000
1D
#1960000
0D
#1980000
1D
#2000000
0D
#2020000
1D
#2040000
0D
#2060000
1D
#2080000
0D
#2100000
1D
#2120000
0D
#2140000
1D
#2160000
0D
#2180000
1D
#2200000
0D
#2220000
1D
#2240000
0D
#2260000
1D
#2280000
0D
#2300000
1D
#2320000
0D
#2340000
1D
#2360000
0D
#2380000
1D
#2400000
0D
#2420000
1D
#2440000
0D
#2460000
1D
#2480000
0D
#2500000
1D
#2520000
0D
#2540000
1D
#2560000
0D
#2580000
1D
#2600000
0D
#2620000
1D
#2640000
0D
#2660000
1D
#2680000
0D
#2700000
1D
#2720000
0D
#2740000
1D
#2760000
0D
#2780000
1D
#2800000
0D
#2820000
1D
#2840000
0D
#2860000
1D
#2880000
0D
#2900000
1D
#2920000
0D
#2940000
1D
#2960000
0D
#2980000
1D
#3000000
0D
#3005000
x%
1!#
1p"
1-"
1N#
1]
0F
#3020000
0R
0S
00#
0,#
0$
0!
0A
1"#
b0 .#
0~"
0z"
0#
0"
0B
1q"
b0 |"
1/"
b0 >"
10"
b0 :"
0P"
0L"
04"
1C"
b0 N"
1V#
b10 ^#
b111 Q#
b10 _#
b0 ~
0k
1D
#3040000
0D
#3060000
b1 ~
0("
0y
1i
0a
b0 !"
0l
0V#
0Z#
0P#
b1 \#
b0 ?"
b1 @"
1D
#3080000
0D
#3100000
b10 @"
b0 ?"
1P#
b1 ]#
0i
1a
b1 !"
1D
#3120000
0D
#3140000
b1 &"
b0 ?"
b11 @"
1D
#3160000
0D
#3180000
b100 @"
b0 ?"
b10 &"
1D
#3200000
0D
#3220000
b11 &"
b0 ?"
b101 @"
1D
#3240000
0D
#3260000
b110 @"
b0 ?"
b100 &"
1D
#3280000
0D
#3300000
b101 &"
b0 ?"
b111 @"
1D
#3320000
0D
#3340000
b1000 @"
b0 ?"
b110 &"
1D
#3360000
0D
#3380000
b111 &"
b0 ?"
b1001 @"
1D
#3400000
0D
#3420000
b1010 @"
b0 ?"
b1000 &"
1D
#3440000
0D
#3460000
b1001 &"
b0 ?"
b1011 @"
1D
#3480000
0D
#3500000
b1100 @"
b0 ?"
b1010 &"
1D
#3520000
0D
#3540000
b1011 &"
b0 ?"
b1101 @"
1D
#3560000
0D
#3580000
b1110 @"
b0 ?"
b1100 &"
1D
#3600000
0D
#3620000
b1101 &"
b0 ?"
b1111 @"
1D
#3640000
0D
#3660000
b0 @"
b0 ?"
b1110 &"
1D
#3680000
0D
#3700000
b1111 &"
b0 ?"
b1 @"
1D
#3720000
0D
#3740000
b10 @"
b0 ?"
1D
#3760000
0D
#3780000
b0 ?"
b11 @"
1D
#3800000
0D
#3820000
b100 @"
b0 ?"
1D
#3840000
0D
#3860000
b0 ?"
b101 @"
1D
#3880000
0D
#3900000
b110 @"
b0 ?"
1D
#3920000
0D
#3940000
b0 ?"
b111 @"
1D
#3960000
0D
#3980000
b1000 @"
b0 ?"
1D
#4000000
0D
#4020000
b0 ?"
b1001 @"
1D
#4040000
0D
#4060000
b1010 @"
b0 ?"
1D
#4080000
0D
#4100000
b0 ?"
b1011 @"
1D
#4120000
0D
#4140000
b1100 @"
b0 ?"
1D
#4160000
0D
#4180000
b0 ?"
b1101 @"
1D
#4200000
0D
#4220000
b1110 @"
b0 ?"
1D
#4240000
0D
#4260000
b0 ?"
b1111 @"
1D
#4280000
0D
#4300000
b0 @"
b0 ?"
1D
#4320000
0D
#4340000
b0 ?"
b1 @"
1D
#4360000
0D
#4380000
b10 @"
b0 ?"
1D
#4400000
0D
#4420000
b0 ?"
b11 @"
1D
#4440000
0D
#4460000
b100 @"
b0 ?"
1D
#4480000
0D
#4500000
b0 ?"
b101 @"
1D
#4520000
0D
#4540000
b110 @"
b0 ?"
1D
#4560000
0D
#4580000
b0 ?"
b111 @"
1D
#4600000
0D
#4620000
b1000 @"
b0 ?"
1D
#4640000
0D
#4660000
b0 ?"
b1001 @"
1D
#4680000
0D
#4700000
b1010 @"
b0 ?"
1D
#4720000
0D
#4740000
b0 ?"
b1011 @"
1D
#4760000
0D
#4780000
b1100 @"
b0 ?"
1D
#4800000
0D
#4820000
b0 ?"
b1101 @"
1D
#4840000
0D
#4860000
b1110 @"
b0 ?"
1D
#4880000
0D
#4900000
b0 ?"
b1111 @"
1D
#4920000
0D
#4940000
b0 @"
b0 ?"
1D
#4960000
0D
#4980000
b0 ?"
b1 @"
1D
#5000000
0D
#5020000
b10 @"
b0 ?"
1D
#5040000
0D
#5060000
b0 ?"
b11 @"
1D
#5080000
0D
#5100000
b100 @"
b0 ?"
1D
#5120000
0D
#5140000
b0 ?"
b101 @"
1D
#5160000
0D
#5180000
b110 @"
b0 ?"
1D
#5200000
0D
#5220000
b0 ?"
b111 @"
1D
#5240000
0D
#5260000
b1000 @"
b0 ?"
1D
#5280000
0D
#5300000
b0 ?"
b1001 @"
1D
#5320000
0D
#5340000
b1010 @"
b0 ?"
1D
#5360000
0D
#5380000
b0 ?"
b1011 @"
1D
#5400000
0D
#5420000
b1100 @"
b0 ?"
1D
#5440000
0D
#5460000
b0 ?"
b1101 @"
1D
#5480000
0D
#5500000
b1110 @"
b0 ?"
1D
#5520000
0D
#5540000
b0 ?"
b1111 @"
1D
#5560000
0D
#5580000
b0 @"
b0 ?"
1D
#5600000
0D
#5620000
b0 ?"
b1 @"
1D
#5640000
0D
#5660000
b10 @"
b0 ?"
1D
#5680000
0D
#5700000
b0 ?"
b11 @"
1D
#5720000
0D
#5740000
b100 @"
b0 ?"
1D
#5760000
0D
#5780000
b0 ?"
b101 @"
1D
#5800000
0D
#5820000
b110 @"
b0 ?"
1D
#5840000
0D
#5860000
b0 ?"
b111 @"
1D
#5880000
0D
#5900000
b1000 @"
b0 ?"
1D
#5920000
0D
#5940000
b0 ?"
b1001 @"
1D
#5960000
0D
#5980000
b1010 @"
b0 ?"
1D
#6000000
0D
#6020000
b0 ?"
b1011 @"
1D
#6040000
0D
#6060000
b1100 @"
b0 ?"
1D
#6080000
0D
#6100000
b0 ?"
b1101 @"
1D
#6120000
0D
#6140000
b1110 @"
b0 ?"
1D
#6160000
0D
#6180000
b0 ?"
b1111 @"
1D
#6200000
0D
#6220000
b0 @"
b0 ?"
1D
#6240000
0D
#6260000
b0 ?"
b1 @"
1D
#6280000
0D
#6300000
b10 @"
b0 ?"
1D
#6320000
0D
#6340000
b0 ?"
b11 @"
1D
#6360000
0D
#6380000
b100 @"
b0 ?"
1D
#6400000
0D
#6420000
b0 ?"
b101 @"
1D
#6440000
0D
#6460000
b110 @"
b0 ?"
1D
#6480000
0D
#6500000
b0 ?"
b111 @"
1D
#6520000
0D
#6540000
b1000 @"
b0 ?"
1D
#6560000
0D
#6580000
b0 ?"
b1001 @"
1D
#6600000
0D
#6620000
b1010 @"
b0 ?"
1D
#6640000
0D
#6660000
b0 ?"
b1011 @"
1D
#6680000
0D
#6700000
b1100 @"
b0 ?"
1D
#6720000
0D
#6740000
b0 ?"
b1101 @"
1D
#6760000
0D
#6780000
b1110 @"
b0 ?"
1D
#6800000
0D
#6820000
b0 ?"
b1111 @"
1D
#6840000
0D
#6860000
b0 @"
b0 ?"
1D
#6880000
0D
#6900000
b0 ?"
b1 @"
1D
#6920000
0D
#6940000
b10 @"
b0 ?"
1D
#6960000
0D
#6980000
b0 ?"
b11 @"
1D
#7000000
0D
#7020000
b100 @"
b0 ?"
1D
#7040000
0D
#7060000
b0 ?"
b101 @"
1D
#7080000
0D
#7100000
b110 @"
b0 ?"
1D
#7120000
0D
#7140000
b0 ?"
b111 @"
1D
#7160000
0D
#7180000
b1000 @"
b0 ?"
1D
#7200000
0D
#7220000
b0 ?"
b1001 @"
1D
#7240000
0D
#7260000
b1010 @"
b0 ?"
1D
#7280000
0D
#7300000
b0 ?"
b1011 @"
1D
#7320000
0D
#7340000
b1100 @"
b0 ?"
1D
#7360000
0D
#7380000
b0 ?"
b1101 @"
1D
#7400000
0D
#7420000
b1110 @"
b0 ?"
1D
#7440000
0D
#7460000
b0 ?"
b1111 @"
1D
#7480000
0D
#7500000
b0 @"
b0 ?"
1D
#7520000
0D
#7540000
b0 ?"
b1 @"
1D
#7560000
0D
#7580000
b10 @"
b0 ?"
1D
#7600000
0D
#7620000
b0 ?"
b11 @"
1D
#7640000
0D
#7660000
b100 @"
b0 ?"
1D
#7680000
0D
#7700000
b0 ?"
b101 @"
1D
#7720000
0D
#7740000
b110 @"
b0 ?"
1D
#7760000
0D
#7780000
b0 ?"
b111 @"
1D
#7800000
0D
#7820000
b1000 @"
b0 ?"
1D
#7840000
0D
#7860000
b0 ?"
b1001 @"
1D
#7880000
0D
#7900000
b1010 @"
b0 ?"
1D
#7920000
0D
#7940000
b0 ?"
b1011 @"
1D
#7960000
0D
#7980000
b1100 @"
b0 ?"
1D
#8000000
0D
#8020000
b0 ?"
b1101 @"
1D
#8040000
0D
#8060000
b1110 @"
b0 ?"
1D
#8080000
0D
#8100000
b0 ?"
b1111 @"
1D
#8120000
0D
#8140000
b0 @"
b0 ?"
1D
#8160000
0D
#8180000
b0 ?"
b1 @"
1D
#8200000
0D
#8220000
b10 @"
b0 ?"
1D
#8240000
0D
#8260000
b0 ?"
b11 @"
1D
#8280000
0D
#8300000
b100 @"
b0 ?"
1D
#8320000
0D
#8340000
b0 ?"
b101 @"
1D
#8360000
0D
#8380000
b110 @"
b0 ?"
1D
#8400000
0D
#8420000
b0 ?"
b111 @"
1D
#8440000
0D
#8460000
b1000 @"
b0 ?"
1D
#8480000
0D
#8500000
b0 ?"
b1001 @"
1D
#8520000
0D
#8540000
b1010 @"
b0 ?"
1D
#8560000
0D
#8580000
b0 ?"
b1011 @"
1D
#8600000
0D
#8620000
b1100 @"
b0 ?"
1D
#8640000
0D
#8660000
b0 ?"
b1101 @"
1D
#8680000
0D
#8700000
b1110 @"
b0 ?"
1D
#8720000
0D
#8740000
b0 ?"
b1111 @"
1D
#8760000
0D
#8780000
b0 @"
b0 ?"
1D
#8800000
0D
#8820000
b0 ?"
b1 @"
1D
#8840000
0D
#8860000
b10 @"
b0 ?"
1D
#8880000
0D
#8900000
b0 ?"
b11 @"
1D
#8920000
0D
#8940000
b100 @"
b0 ?"
1D
#8960000
0D
#8980000
b0 ?"
b101 @"
1D
#9000000
0D
#9020000
b110 @"
b0 ?"
1D
#9040000
0D
#9060000
b0 ?"
b111 @"
1D
#9080000
0D
#9100000
b1000 @"
b0 ?"
1D
#9120000
0D
#9140000
b0 ?"
b1001 @"
1D
#9160000
0D
#9180000
b1010 @"
b0 ?"
1D
#9200000
0D
#9220000
b0 ?"
b1011 @"
1D
#9240000
0D
#9260000
b1100 @"
b0 ?"
1D
#9280000
0D
#9300000
b0 ?"
b1101 @"
1D
#9320000
0D
#9340000
b1110 @"
b0 ?"
1D
#9360000
0D
#9380000
b0 ?"
b1111 @"
1D
#9400000
0D
#9420000
b0 @"
b0 ?"
1D
#9440000
0D
#9460000
b0 ?"
b1 @"
1D
#9480000
0D
#9500000
b10 @"
b0 ?"
1D
#9520000
0D
#9540000
b0 ?"
b11 @"
1D
#9560000
0D
#9580000
b100 @"
b0 ?"
1D
#9600000
0D
